id,name,model_id/id,group_id/id,perm_read,perm_write,perm_create,perm_unlink
access_prepaid_sales_all,access.prepaid.sales.all,sales_developer.model_sales_developer_prepaid_sale,,1,0,0,0
access_prepaid_sales_user,access.prepaid.sales.users,sales_developer.model_sales_developer_prepaid_sale,base.group_user,1,1,1,0
access_plan_sales_all,access.plan.sales.all,sales_developer.model_sales_developer_plan_sale,,1,0,0,0
access_plan_sales_user,access.plan.sales.users,sales_developer.model_sales_developer_plan_sale,base.group_user,1,1,1,0
access_activation_sales_all,access.activation.sales.all,sales_developer.model_sales_developer_activation_sale,,1,0,0,0
access_activation_sales_user,access.activation.sales.users,sales_developer.model_sales_developer_activation_sale,base.group_user,1,1,1,0
